<svg xmlns="http://www.w3.org/2000/svg" xmlns:xlink="http://www.w3.org/1999/xlink" width="8" height="16" viewBox="0 0 8 16">
  <image id="Vector_Smart_Object" data-name="Vector Smart Object" width="8" height="16" xlink:href="data:image/png;base64,iVBORw0KGgoAAAANSUhEUgAAAAgAAAAQCAYAAAArij59AAAAi0lEQVQokWP8//8/AxJQZ2Bg8GZgYOCDCj1gACmA4vD//////Y8KDjAh6W5iYGBA5kMAkgnIoPL///8C////52HB0AEBJxgYGD6AWCAFGQwMDBJoCuIZGBjsYY688B83WIXpKFTwCGQCL9RByMAHKsYBcsNnLDq/wBxJyIpBoQA5qCcisZ+ASQYGBgCzyoEayxt0/AAAAABJRU5ErkJggg=="/>
</svg>
